{"failedCount":1,"prefixedPath":"src\/test\/java\/resources\/GetApi.feature","packageQualifiedName":"src.test.java.resources.GetApi","loopIndex":-1,"relativePath":"src\/test\/java\/resources\/GetApi.feature","scenarioResults":[{"sectionIndex":1,"stepResults":[{"result":{"nanos":73962800,"millis":73.9628,"status":"passed"},"step":{"background":true,"line":4,"prefix":"*","index":0,"text":"url 'https:\/\/reqres.in\/api'"}},{"result":{"nanos":7190200,"millis":7.1902,"status":"passed"},"step":{"background":true,"line":5,"prefix":"*","index":1,"text":"headers Accept = 'application\/json'"},"stepLog":"15:57:55.893 did not evaluate to map Accept = 'application\/json': [type: STRING, value: application\/json]\n"},{"result":{"nanos":409200,"millis":0.4092,"status":"passed"},"step":{"line":14,"prefix":"Given","index":0,"text":"path '\/user?page=2'"}},{"result":{"nanos":858822000,"millis":858.822,"status":"passed"},"step":{"line":15,"prefix":"When","index":1,"text":"method GET"},"stepLog":"15:57:56.513 request:\n1 > GET https:\/\/reqres.in\/api\/user%3Fpage=2\n1 > Host: reqres.in\n1 > Connection: Keep-Alive\n1 > User-Agent: Apache-HttpClient\/4.5.13 (Java\/1.8.0_121)\n1 > Accept-Encoding: gzip,deflate\n\n\n15:57:56.720 response time in milliseconds: 204\n1 < 200\n1 < Date: Sat, 10 Jun 2023 14:57:57 GMT\n1 < Content-Type: application\/json; charset=utf-8\n1 < Transfer-Encoding: chunked\n1 < Connection: keep-alive\n1 < X-Powered-By: Express\n1 < Access-Control-Allow-Origin: *\n1 < Etag: W\/\"2c1-N6Rqerxquq2kgQhL51EiSg4x0R8\"\n1 < Via: 1.1 vegur\n1 < Cache-Control: max-age=14400\n1 < CF-Cache-Status: HIT\n1 < Age: 225\n1 < Report-To: {\"endpoints\":[{\"url\":\"https:\\\/\\\/a.nel.cloudflare.com\\\/report\\\/v3?s=R%2F84FT%2BHLVUhElDkJ1ahvLjiFFBSXkAm1UkfulxB4MNHl8xKu3a0nV20gD%2B%2BeXezsC%2FXL3eVVO6mxRZJZNTgNJmbiov48dnnNiiMr46aue04TZPlxCrmvpAhGw%3D%3D\"}],\"group\":\"cf-nel\",\"max_age\":604800}\n1 < NEL: {\"success_fraction\":0,\"report_to\":\"cf-nel\",\"max_age\":604800}\n1 < Vary: Accept-Encoding\n1 < Server: cloudflare\n1 < CF-RAY: 7d52783ecbb6779d-LHR\n{\"page\":1,\"per_page\":6,\"total\":12,\"total_pages\":2,\"data\":[{\"id\":1,\"name\":\"cerulean\",\"year\":2000,\"color\":\"#98B2D1\",\"pantone_value\":\"15-4020\"},{\"id\":2,\"name\":\"fuchsia rose\",\"year\":2001,\"color\":\"#C74375\",\"pantone_value\":\"17-2031\"},{\"id\":3,\"name\":\"true red\",\"year\":2002,\"color\":\"#BF1932\",\"pantone_value\":\"19-1664\"},{\"id\":4,\"name\":\"aqua sky\",\"year\":2003,\"color\":\"#7BC4C4\",\"pantone_value\":\"14-4811\"},{\"id\":5,\"name\":\"tigerlily\",\"year\":2004,\"color\":\"#E2583E\",\"pantone_value\":\"17-1456\"},{\"id\":6,\"name\":\"blue turquoise\",\"year\":2005,\"color\":\"#53B0AE\",\"pantone_value\":\"15-5217\"}],\"support\":{\"url\":\"https:\/\/reqres.in\/#support-heading\",\"text\":\"To keep ReqRes free, contributions towards server costs are appreciated!\"}}\n\n"},{"result":{"nanos":12800,"millis":0.0128,"status":"passed"},"step":{"line":16,"prefix":"Then","index":2,"text":"status 200"}},{"result":{"nanos":33157900,"errorMessage":"js failed:\n>>>>\n01: respose\n<<<<\norg.graalvm.polyglot.PolyglotException: ReferenceError: \"respose\" is not defined\n- <js>.:program(Unnamed:1)\n\nsrc\/test\/java\/resources\/GetApi.feature:17","millis":33.1579,"status":"failed"},"step":{"line":17,"prefix":"And","index":3,"text":"match respose.data[0].name == 'cerulean'"},"stepLog":"15:57:56.786 src\/test\/java\/resources\/GetApi.feature:17\nAnd match respose.data[0].name == 'cerulean'\njs failed:\n>>>>\n01: respose\n<<<<\norg.graalvm.polyglot.PolyglotException: ReferenceError: \"respose\" is not defined\n- <js>.:program(Unnamed:1)\n\nsrc\/test\/java\/resources\/GetApi.feature:17\n"}],"line":13,"description":"","durationMillis":973.5549,"failed":true,"error":"js failed:\n>>>>\n01: respose\n<<<<\norg.graalvm.polyglot.PolyglotException: ReferenceError: \"respose\" is not defined\n- <js>.:program(Unnamed:1)\n\nsrc\/test\/java\/resources\/GetApi.feature:17","executorName":"main","name":"Get Demo 2","startTime":1686409075801,"refId":"[2:13]","endTime":1686409076786,"exampleIndex":-1}],"callDepth":0,"name":"Get API Demo","description":"","resultDate":"2023-06-10 03:57:56 PM","durationMillis":973.5549,"passedCount":0}